code.vcd
$date
	Thu Dec 24 11:29:41 2020
$end
$version
	Icarus Verilog
$end
$timescale
	1ps
$end
$scope module code_test $end
$var wire 8 ! p [7:0] $end
$var reg 4 " a [3:0] $end
$var reg 4 # b [3:0] $end
$scope module uut $end
$var wire 4 $ a [3:0] $end
$var wire 4 % b [3:0] $end
$var wire 1 & one $end
$var wire 1 ' zero $end
$var wire 6 ( w [5:0] $end
$var wire 8 ) p [7:0] $end
$var wire 6 * c [5:0] $end
$scope module h1 $end
$var wire 1 + a $end
$var wire 1 , b $end
$var wire 1 - c $end
$var wire 1 . s $end
$upscope $end
$scope module h2 $end
$var wire 1 / a $end
$var wire 1 0 b $end
$var wire 1 1 c $end
$var wire 1 2 d $end
$var wire 1 ' xin $end
$var wire 1 3 xout $end
$var wire 1 4 w1 $end
$var wire 1 5 sum $end
$var wire 1 6 carry $end
$scope module f1 $end
$var wire 1 3 c $end
$var wire 1 4 s $end
$var wire 1 / x $end
$var wire 1 0 y $end
$var wire 1 1 z $end
$upscope $end
$scope module f2 $end
$var wire 1 6 c $end
$var wire 1 5 s $end
$var wire 1 ' x $end
$var wire 1 4 y $end
$var wire 1 2 z $end
$upscope $end
$upscope $end
$scope module h3 $end
$var wire 1 7 a $end
$var wire 1 8 b $end
$var wire 1 9 c $end
$var wire 1 : d $end
$var wire 1 ; e $end
$var wire 1 < x1in $end
$var wire 1 ' x2in $end
$var wire 1 = x2out $end
$var wire 1 > x1out $end
$var wire 1 ? w2 $end
$var wire 1 @ w1 $end
$var wire 1 A sum $end
$var wire 1 B carry $end
$scope module f1 $end
$var wire 1 > c $end
$var wire 1 @ s $end
$var wire 1 7 x $end
$var wire 1 8 y $end
$var wire 1 9 z $end
$upscope $end
$scope module f2 $end
$var wire 1 = c $end
$var wire 1 ? s $end
$var wire 1 < x $end
$var wire 1 @ y $end
$var wire 1 : z $end
$upscope $end
$scope module f3 $end
$var wire 1 B c $end
$var wire 1 A s $end
$var wire 1 ' x $end
$var wire 1 ? y $end
$var wire 1 ; z $end
$upscope $end
$upscope $end
$scope module h4 $end
$var wire 1 C a $end
$var wire 1 D b $end
$var wire 1 E c $end
$var wire 1 F d $end
$var wire 1 ' e $end
$var wire 1 G x1in $end
$var wire 1 H x2in $end
$var wire 1 I x2out $end
$var wire 1 J x1out $end
$var wire 1 K w2 $end
$var wire 1 L w1 $end
$var wire 1 M sum $end
$var wire 1 N carry $end
$scope module f1 $end
$var wire 1 J c $end
$var wire 1 L s $end
$var wire 1 C x $end
$var wire 1 D y $end
$var wire 1 E z $end
$upscope $end
$scope module f2 $end
$var wire 1 I c $end
$var wire 1 K s $end
$var wire 1 G x $end
$var wire 1 L y $end
$var wire 1 F z $end
$upscope $end
$scope module f3 $end
$var wire 1 N c $end
$var wire 1 M s $end
$var wire 1 H x $end
$var wire 1 K y $end
$var wire 1 ' z $end
$upscope $end
$upscope $end
$scope module h5 $end
$var wire 1 O a $end
$var wire 1 P b $end
$var wire 1 Q c $end
$var wire 1 R d $end
$var wire 1 S xin $end
$var wire 1 T xout $end
$var wire 1 U w1 $end
$var wire 1 V sum $end
$var wire 1 W carry $end
$scope module f1 $end
$var wire 1 T c $end
$var wire 1 U s $end
$var wire 1 O x $end
$var wire 1 P y $end
$var wire 1 Q z $end
$upscope $end
$scope module f2 $end
$var wire 1 W c $end
$var wire 1 V s $end
$var wire 1 S x $end
$var wire 1 U y $end
$var wire 1 R z $end
$upscope $end
$upscope $end
$scope module h6 $end
$var wire 1 X c $end
$var wire 1 Y s $end
$var wire 1 Z x $end
$var wire 1 [ y $end
$var wire 1 \ z $end
$upscope $end
$upscope $end
$upscope $end
$enddefinitions $end
#0
$dumpvars
0\
0[
0Z
0Y
0X
0W
0V
0U
0T
0S
0R
0Q
0P
0O
0N
0M
0L
0K
0J
0I
0H
0G
0F
0E
0D
0C
0B
0A
0@
0?
0>
0=
0<
0;
0:
09
08
07
06
05
04
03
02
01
00
0/
0.
0-
0,
0+
bz00000 *
b0 )
b0 (
0'
1&
b0 %
b0 $
b0 #
b0 "
b0 !
$end
#1000
b1 #
b1 %
#2000
b10 !
b10 )
1.
1,
b10 #
b10 %
b1 "
b1 $
#3000
b11 !
b11 )
b11 #
b11 %
#4000
1A
1?
0.
1@
b1000 !
b1000 )
0,
19
b100 #
b100 %
b10 "
b10 $
#5000
b1010 !
b1010 )
1.
1+
b101 #
b101 %
#6000
1M
0A
1H
0?
1=
1<
b101 (
13
b10010 !
b10010 )
05
04
0+
10
1,
11
b110 #
b110 %
b11 "
b11 $
#7000
15
12
0.
bz00001 *
1-
b10101 !
b10101 )
1+
b111 #
b111 %
#8000
0M
0A
05
0H
1V
0<
0?
0=
02
b0 (
03
1U
bz00000 *
0-
04
0@
b100000 !
b100000 )
0+
0,
00
01
09
1P
b1000 #
b1000 %
b100 "
b100 $
#9000
b100100 !
b100100 )
15
14
1/
b1001 #
b1001 %
#10000
1M
1H
b100 (
1=
05
0A
04
1@
b110010 !
b110010 )
1.
0?
0/
18
1,
1:
b1010 #
b1010 %
b101 "
b101 $
#11000
15
14
b110111 !
b110111 )
1/
b1011 #
b1011 %
#12000
1Y
0M
1[
bz10000 *
1W
0V
05
1R
1J
0G
1A
0H
0K
04
0>
b1000 (
0=
0.
1@
1?
0L
0/
08
1D
b1001000 !
b1001000 )
0,
19
0:
1E
b1100 #
b1100 %
b110 "
b110 $
#13000
15
14
b1001110 !
b1001110 )
1.
1+
1/
b1101 #
b1101 %
#14000
0[
0X
0W
1Y
1V
1\
1T
0U
1Q
bz01000 *
1N
1K
0M
1G
1>
05
1<
b1100010 !
b1100010 )
0A
1H
0@
13
b101111 (
1=
04
0?
0+
0/
10
18
1,
11
1:
b1110 #
b1110 %
b111 "
b111 $
#15000
1A
1;
16
12
14
0.
bz01011 *
1-
b1101001 !
b1101001 )
1+
1/
b1111 #
b1111 %
#16000
0M
0[
0Q
0V
0W
0;
0F
0N
0Y
06
0B
0S
0\
0<
0G
0A
0H
0K
0I
0R
0T
02
03
0>
0=
b0 (
0J
0U
bz00000 *
0-
04
0@
0?
0L
b0 !
b0 )
0+
0,
0/
00
01
08
09
0:
0D
0E
0P
b0 #
b0 %
b1000 "
b1000 $
#17000
b1000 !
b1000 )
1A
1?
1@
17
b1 #
b1 %
#18000
0A
1M
0?
1K
0@
1L
b10010 !
b10010 )
1.
07
1C
1,
b10 #
b10 %
b1001 "
b1001 $
#19000
1A
1?
1@
b11011 !
b11011 )
17
b11 #
b11 %
#20000
0M
0K
1A
1V
1?
0G
0L
1U
b0 (
0>
0.
1@
07
0C
1O
b101000 !
b101000 )
0,
19
b100 #
b100 %
b1010 "
b1010 $
#21000
1M
0A
1K
0?
1G
b10 (
1>
0@
b110010 !
b110010 )
1.
1+
17
b101 #
b101 %
#22000
1\
1T
0U
1Q
1Y
1N
0[
1H
0V
bz01000 *
0W
1=
0A
0M
0S
1<
0?
0G
1K
0I
13
b100101 (
0>
b1000010 !
b1000010 )
05
1@
1L
04
0+
10
07
1C
1,
11
b110 #
b110 %
b1011 "
b1011 $
#23000
1[
1Y
1W
0\
0T
1U
0V
0Q
0N
1S
1A
0K
1I
0H
1?
0=
1G
15
b10011 (
1>
12
0@
0.
bz10001 *
1-
b1001101 !
b1001101 )
1+
17
b111 #
b111 %
#24000
0[
1V
0W
0M
0S
0A
0I
05
0H
0<
0?
0=
0G
0L
1Y
0X
02
03
b0 (
0>
bz00000 *
0-
04
0@
07
0C
0O
1Z
b1100000 !
b1100000 )
0+
0,
00
01
09
1P
b1000 #
b1000 %
b1100 "
b1100 $
#25000
1A
b1101100 !
b1101100 )
15
1?
14
1@
1/
17
b1001 #
b1001 %
#26000
1X
0Y
0V
1\
1T
0U
1Q
bz01000 *
1N
0M
05
1K
0A
1H
04
1L
b100100 (
1=
b10000010 !
b10000010 )
1.
0?
0/
07
18
1C
1,
1:
b1010 #
b1010 %
b1101 "
b1101 $
#27000
1X
1[
0Y
1W
0\
0T
1U
0Q
0V
0M
bz10000 *
0N
1A
0H
1S
0=
0K
1I
15
1?
1G
14
0@
b10010 (
1>
b10001111 !
b10001111 )
1/
17
b1011 #
b1011 %
#28000
1X
0[
bz00000 *
0W
1V
0M
05
0Y
0S
0G
1\
1A
0K
0I
1R
04
0>
0U
1T
b101000 (
1J
0.
1@
1?
0L
0/
07
08
0C
1D
1O
b10101000 !
b10101000 )
0,
19
0:
1E
b1100 #
b1100 %
b1110 "
b1110 $
#29000
1M
0A
1K
15
0?
1G
b101010 (
1>
14
0@
b10110110 !
b10110110 )
1.
1+
1/
17
b1101 #
b1101 %
#30000
1Y
1[
bz10000 *
1W
0V
1H
1M
1=
1S
0K
1I
05
1<
b11010010 !
b11010010 )
0A
1L
b111111 (
13
04
0?
0+
0/
10
07
18
1C
1,
11
1:
b1110 #
b1110 %
b1111 "
b1111 $
#31000
1V
1U
1Q
0M
1N
1K
1F
1B
1;
16
1?
12
14
1@
0.
bz11111 *
1-
b11100001 !
b11100001 )
1+
1/
17
b1111 #
b1111 %
#32000
0U
0[
0Q
0W
0;
0F
0M
0N
06
0H
0B
0V
0S
0<
0G
0=
0A
0R
0K
0I
0\
02
03
0>
0J
b0 (
0T
0Y
0X
bz00000 *
0-
04
0@
0?
0L
b0 !
b0 )
0+
0,
0/
00
01
07
08
09
0:
0C
0D
0E
0O
0P
0Z
b0 #
b0 %
b0 "
b0 $
#33000
b1 #
b1 %
#34000
b10 !
b10 )
1.
1,
b10 #
b10 %
b1 "
b1 $
#35000
b11 !
b11 )
b11 #
b11 %
#36000
1A
1?
0.
1@
b1000 !
b1000 )
0,
19
b100 #
b100 %
b10 "
b10 $
#37000
b1010 !
b1010 )
1.
1+
b101 #
b101 %
#38000
1M
0A
1H
0?
1=
1<
b101 (
13
b10010 !
b10010 )
05
04
0+
10
1,
11
b110 #
b110 %
b11 "
b11 $
#39000
15
12
0.
bz00001 *
1-
b10101 !
b10101 )
1+
b111 #
b111 %
#40000
0M
0A
05
0H
1V
0<
0?
0=
02
b0 (
03
1U
bz00000 *
0-
04
0@
b100000 !
b100000 )
0+
0,
00
01
09
1P
b1000 #
b1000 %
b100 "
b100 $
#41000
b100100 !
b100100 )
15
14
1/
b1001 #
b1001 %
#42000
1M
1H
b100 (
1=
05
0A
04
1@
b110010 !
b110010 )
1.
0?
0/
18
1,
1:
b1010 #
b1010 %
b101 "
b101 $
#43000
15
14
b110111 !
b110111 )
1/
b1011 #
b1011 %
#44000
1Y
0M
1[
bz10000 *
1W
0V
05
1R
1J
0G
1A
0H
0K
04
0>
b1000 (
0=
0.
1@
1?
0L
0/
08
1D
b1001000 !
b1001000 )
0,
19
0:
1E
b1100 #
b1100 %
b110 "
b110 $
#45000
15
14
b1001110 !
b1001110 )
1.
1+
1/
b1101 #
b1101 %
#46000
0[
0X
0W
1Y
1V
1\
1T
0U
1Q
bz01000 *
1N
1K
0M
1G
1>
05
1<
b1100010 !
b1100010 )
0A
1H
0@
13
b101111 (
1=
04
0?
0+
0/
10
18
1,
11
1:
b1110 #
b1110 %
b111 "
b111 $
#47000
1A
1;
16
12
14
0.
bz01011 *
1-
b1101001 !
b1101001 )
1+
1/
b1111 #
b1111 %
#48000
0M
0[
0Q
0V
0W
0;
0F
0N
0Y
06
0B
0S
0\
0<
0G
0A
0H
0K
0I
0R
0T
02
03
0>
0=
b0 (
0J
0U
bz00000 *
0-
04
0@
0?
0L
b0 !
b0 )
0+
0,
0/
00
01
08
09
0:
0D
0E
0P
b0 #
b0 %
b1000 "
b1000 $
#49000
b1000 !
b1000 )
1A
1?
1@
17
b1 #
b1 %
#50000
0A
1M
0?
1K
0@
1L
b10010 !
b10010 )
1.
07
1C
1,
b10 #
b10 %
b1001 "
b1001 $
#51000
1A
1?
1@
b11011 !
b11011 )
17
b11 #
b11 %
#52000
0M
0K
1A
1V
1?
0G
0L
1U
b0 (
0>
0.
1@
07
0C
1O
b101000 !
b101000 )
0,
19
b100 #
b100 %
b1010 "
b1010 $
#53000
1M
0A
1K
0?
1G
b10 (
1>
0@
b110010 !
b110010 )
1.
1+
17
b101 #
b101 %
#54000
1\
1T
0U
1Q
1Y
1N
0[
1H
0V
bz01000 *
0W
1=
0A
0M
0S
1<
0?
0G
1K
0I
13
b100101 (
0>
b1000010 !
b1000010 )
05
1@
1L
04
0+
10
07
1C
1,
11
b110 #
b110 %
b1011 "
b1011 $
#55000
1[
1Y
1W
0\
0T
1U
0V
0Q
0N
1S
1A
0K
1I
0H
1?
0=
1G
15
b10011 (
1>
12
0@
0.
bz10001 *
1-
b1001101 !
b1001101 )
1+
17
b111 #
b111 %
#56000
0[
1V
0W
0M
0S
0A
0I
05
0H
0<
0?
0=
0G
0L
1Y
0X
02
03
b0 (
0>
bz00000 *
0-
04
0@
07
0C
0O
1Z
b1100000 !
b1100000 )
0+
0,
00
01
09
1P
b1000 #
b1000 %
b1100 "
b1100 $
#57000
1A
b1101100 !
b1101100 )
15
1?
14
1@
1/
17
b1001 #
b1001 %
#58000
1X
0Y
0V
1\
1T
0U
1Q
bz01000 *
1N
0M
05
1K
0A
1H
04
1L
b100100 (
1=
b10000010 !
b10000010 )
1.
0?
0/
07
18
1C
1,
1:
b1010 #
b1010 %
b1101 "
b1101 $
#59000
1X
1[
0Y
1W
0\
0T
1U
0Q
0V
0M
bz10000 *
0N
1A
0H
1S
0=
0K
1I
15
1?
1G
14
0@
b10010 (
1>
b10001111 !
b10001111 )
1/
17
b1011 #
b1011 %
#60000
1X
0[
bz00000 *
0W
1V
0M
05
0Y
0S
0G
1\
1A
0K
0I
1R
04
0>
0U
1T
b101000 (
1J
0.
1@
1?
0L
0/
07
08
0C
1D
1O
b10101000 !
b10101000 )
0,
19
0:
1E
b1100 #
b1100 %
b1110 "
b1110 $
#61000
1M
0A
1K
15
0?
1G
b101010 (
1>
14
0@
b10110110 !
b10110110 )
1.
1+
1/
17
b1101 #
b1101 %
#62000
1Y
1[
bz10000 *
1W
0V
1H
1M
1=
1S
0K
1I
05
1<
b11010010 !
b11010010 )
0A
1L
b111111 (
13
04
0?
0+
0/
10
07
18
1C
1,
11
1:
b1110 #
b1110 %
b1111 "
b1111 $
#63000
1V
1U
1Q
0M
1N
1K
1F
1B
1;
16
1?
12
14
1@
0.
bz11111 *
1-
b11100001 !
b11100001 )
1+
1/
17
b1111 #
b1111 %
#64000
0U
0[
0Q
0W
0;
0F
0M
0N
06
0H
0B
0V
0S
0<
0G
0=
0A
0R
0K
0I
0\
02
03
0>
0J
b0 (
0T
0Y
0X
bz00000 *
0-
04
0@
0?
0L
b0 !
b0 )
0+
0,
0/
00
01
07
08
09
0:
0C
0D
0E
0O
0P
0Z
b0 #
b0 %
b0 "
b0 $
#65000
b1 #
b1 %
#66000
b10 !
b10 )
1.
1,
b10 #
b10 %
b1 "
b1 $
#67000
b11 !
b11 )
b11 #
b11 %
#68000
1A
1?
0.
1@
b1000 !
b1000 )
0,
19
b100 #
b100 %
b10 "
b10 $
#69000
b1010 !
b1010 )
1.
1+
b101 #
b101 %
#70000
1M
0A
1H
0?
1=
1<
b101 (
13
b10010 !
b10010 )
05
04
0+
10
1,
11
b110 #
b110 %
b11 "
b11 $
#71000
15
12
0.
bz00001 *
1-
b10101 !
b10101 )
1+
b111 #
b111 %
#72000
0M
0A
05
0H
1V
0<
0?
0=
02
b0 (
03
1U
bz00000 *
0-
04
0@
b100000 !
b100000 )
0+
0,
00
01
09
1P
b1000 #
b1000 %
b100 "
b100 $
#73000
b100100 !
b100100 )
15
14
1/
b1001 #
b1001 %
#74000
1M
1H
b100 (
1=
05
0A
04
1@
b110010 !
b110010 )
1.
0?
0/
18
1,
1:
b1010 #
b1010 %
b101 "
b101 $
#75000
15
14
b110111 !
b110111 )
1/
b1011 #
b1011 %
#76000
1Y
0M
1[
bz10000 *
1W
0V
05
1R
1J
0G
1A
0H
0K
04
0>
b1000 (
0=
0.
1@
1?
0L
0/
08
1D
b1001000 !
b1001000 )
0,
19
0:
1E
b1100 #
b1100 %
b110 "
b110 $
#77000
15
14
b1001110 !
b1001110 )
1.
1+
1/
b1101 #
b1101 %
#78000
0[
0X
0W
1Y
1V
1\
1T
0U
1Q
bz01000 *
1N
1K
0M
1G
1>
05
1<
b1100010 !
b1100010 )
0A
1H
0@
13
b101111 (
1=
04
0?
0+
0/
10
18
1,
11
1:
b1110 #
b1110 %
b111 "
b111 $
#79000
1A
1;
16
12
14
0.
bz01011 *
1-
b1101001 !
b1101001 )
1+
1/
b1111 #
b1111 %
#80000
0M
0[
0Q
0V
0W
0;
0F
0N
0Y
06
0B
0S
0\
0<
0G
0A
0H
0K
0I
0R
0T
02
03
0>
0=
b0 (
0J
0U
bz00000 *
0-
04
0@
0?
0L
b0 !
b0 )
0+
0,
0/
00
01
08
09
0:
0D
0E
0P
b0 #
b0 %
b1000 "
b1000 $
#81000
b1000 !
b1000 )
1A
1?
1@
17
b1 #
b1 %
#82000
0A
1M
0?
1K
0@
1L
b10010 !
b10010 )
1.
07
1C
1,
b10 #
b10 %
b1001 "
b1001 $
#83000
1A
1?
1@
b11011 !
b11011 )
17
b11 #
b11 %
#84000
0M
0K
1A
1V
1?
0G
0L
1U
b0 (
0>
0.
1@
07
0C
1O
b101000 !
b101000 )
0,
19
b100 #
b100 %
b1010 "
b1010 $
#85000
1M
0A
1K
0?
1G
b10 (
1>
0@
b110010 !
b110010 )
1.
1+
17
b101 #
b101 %
#86000
1\
1T
0U
1Q
1Y
1N
0[
1H
0V
bz01000 *
0W
1=
0A
0M
0S
1<
0?
0G
1K
0I
13
b100101 (
0>
b1000010 !
b1000010 )
05
1@
1L
04
0+
10
07
1C
1,
11
b110 #
b110 %
b1011 "
b1011 $
#87000
1[
1Y
1W
0\
0T
1U
0V
0Q
0N
1S
1A
0K
1I
0H
1?
0=
1G
15
b10011 (
1>
12
0@
0.
bz10001 *
1-
b1001101 !
b1001101 )
1+
17
b111 #
b111 %
#88000
0[
1V
0W
0M
0S
0A
0I
05
0H
0<
0?
0=
0G
0L
1Y
0X
02
03
b0 (
0>
bz00000 *
0-
04
0@
07
0C
0O
1Z
b1100000 !
b1100000 )
0+
0,
00
01
09
1P
b1000 #
b1000 %
b1100 "
b1100 $
#89000
1A
b1101100 !
b1101100 )
15
1?
14
1@
1/
17
b1001 #
b1001 %
#90000
1X
0Y
0V
1\
1T
0U
1Q
bz01000 *
1N
0M
05
1K
0A
1H
04
1L
b100100 (
1=
b10000010 !
b10000010 )
1.
0?
0/
07
18
1C
1,
1:
b1010 #
b1010 %
b1101 "
b1101 $
#91000
1X
1[
0Y
1W
0\
0T
1U
0Q
0V
0M
bz10000 *
0N
1A
0H
1S
0=
0K
1I
15
1?
1G
14
0@
b10010 (
1>
b10001111 !
b10001111 )
1/
17
b1011 #
b1011 %
#92000
1X
0[
bz00000 *
0W
1V
0M
05
0Y
0S
0G
1\
1A
0K
0I
1R
04
0>
0U
1T
b101000 (
1J
0.
1@
1?
0L
0/
07
08
0C
1D
1O
b10101000 !
b10101000 )
0,
19
0:
1E
b1100 #
b1100 %
b1110 "
b1110 $
#93000
1M
0A
1K
15
0?
1G
b101010 (
1>
14
0@
b10110110 !
b10110110 )
1.
1+
1/
17
b1101 #
b1101 %
#94000
1Y
1[
bz10000 *
1W
0V
1H
1M
1=
1S
0K
1I
05
1<
b11010010 !
b11010010 )
0A
1L
b111111 (
13
04
0?
0+
0/
10
07
18
1C
1,
11
1:
b1110 #
b1110 %
b1111 "
b1111 $
#95000
1V
1U
1Q
0M
1N
1K
1F
1B
1;
16
1?
12
14
1@
0.
bz11111 *
1-
b11100001 !
b11100001 )
1+
1/
17
b1111 #
b1111 %
#96000
0U
0[
0Q
0W
0;
0F
0M
0N
06
0H
0B
0V
0S
0<
0G
0=
0A
0R
0K
0I
0\
02
03
0>
0J
b0 (
0T
0Y
0X
bz00000 *
0-
04
0@
0?
0L
b0 !
b0 )
0+
0,
0/
00
01
07
08
09
0:
0C
0D
0E
0O
0P
0Z
b0 #
b0 %
b0 "
b0 $
#97000
b1 #
b1 %
#98000
b10 !
b10 )
1.
1,
b10 #
b10 %
b1 "
b1 $
#99000
b11 !
b11 )
b11 #
b11 %
#100000
1A
1?
0.
1@
b1000 !
b1000 )
0,
19
b100 #
b100 %
b10 "
b10 $
